{
    "$schema": "https://schema.management.azure.com/schemas/2015-01-01/deploymentTemplate.json#",
    "contentVersion": "1.0.0.0",
    "parameters": {
        "components_dave_api_name": {
            "defaultValue": "dave-api",
            "type": "String"
        },
        "components_dave_frontend_name": {
            "defaultValue": "dave-frontend",
            "type": "String"
        },
        "servers_dave_db_host_name": {
            "defaultValue": "dave-db-host",
            "type": "String"
        },
        "serverfarms_dave_sp_name": {
            "defaultValue": "dave-sp",
            "type": "String"
        },
        "sites_dave_frontend_name": {
            "defaultValue": "dave-frontend",
            "type": "String"
        },
        "sites_dave_api_name": {
            "defaultValue": "dave-api",
            "type": "String"
        },
        "databases_dave_db_name": {
            "defaultValue": "dave-db-host/dave-sql",
            "type": "String"
        },
        "databases_master_name": {
            "defaultValue": "dave-db-host/master",
            "type": "String"
        },
        "firewallRules_AllowAllWindowsAzureIps_name": {
            "defaultValue": "dave-db-host/AllowAllWindowsAzureIps",
            "type": "String"
        }
    },
    "variables": {},
  "resources": [
    {
      "type": "microsoft.insights/components",
      "kind": "web",
      "name": "[parameters('components_dave_api_name')]",
      "apiVersion": "2014-04-01",
      "location": "Central US",
      "properties": {
        "ApplicationId": "[parameters('components_dave_api_name')]"
      },
      "dependsOn": [ ]
    },
    {
      "type": "microsoft.insights/components",
      "kind": "web",
      "name": "[parameters('components_dave_frontend_name')]",
      "apiVersion": "2014-04-01",
      "location": "Central US",
      "properties": {
        "ApplicationId": "[parameters('components_dave_frontend_name')]"
      },
      "dependsOn": [ ]
    },
    {
      "type": "Microsoft.Sql/servers",
      "kind": "v12.0",
      "name": "[parameters('servers_dave_db_host_name')]",
      "apiVersion": "2014-04-01-preview",
      "location": "West Europe",
      "properties": {
        "administratorLogin": "dave",
        "administratorLoginPassword": "D4v3d4ve",
        "version": "12.0"
      },
      "dependsOn": [ ]
    },
    {
      "type": "Microsoft.Web/serverfarms",
      "sku": {
        "name": "B1",
        "tier": "Basic",
        "size": "B1",
        "family": "B",
        "capacity": 1
      },
      "name": "[parameters('serverfarms_dave_sp_name')]",
      "apiVersion": "2015-08-01",
      "location": "West Europe",
      "properties": {
        "name": "[parameters('serverfarms_dave_sp_name')]",
        "numberOfWorkers": 1
      },
      "dependsOn": [ ]
    },
    {
      "type": "Microsoft.Web/sites",
      "name": "[parameters('sites_dave_frontend_name')]",
      "apiVersion": "2015-08-01",
      "location": "West Europe",
      "properties": {
        "name": "[parameters('sites_dave_frontend_name')]",
        "hostNames": [
          "dave-frontend.azurewebsites.net"
        ],
        "enabledHostNames": [
          "dave-frontend.azurewebsites.net",
          "dave-frontend.scm.azurewebsites.net"
        ],
        "hostNameSslStates": [
          {
            "name": "[concat(parameters('sites_dave_frontend_name'),'.azurewebsites.net')]",
            "sslState": 0,
            "thumbprint": null,
            "ipBasedSslState": 0
          },
          {
            "name": "[concat(parameters('sites_dave_frontend_name'),'.scm.azurewebsites.net')]",
            "sslState": 0,
            "thumbprint": null,
            "ipBasedSslState": 0
          }
        ],
        "serverFarmId": "[resourceId('Microsoft.Web/serverfarms', parameters('serverfarms_dave_sp_name'))]"
      },
      "dependsOn": [
        "[resourceId('Microsoft.Web/serverfarms', parameters('serverfarms_dave_sp_name'))]"
      ]
    },
    {
      "type": "Microsoft.Web/sites",
      "kind": "api",
      "name": "[parameters('sites_dave_api_name')]",
      "apiVersion": "2015-08-01",
      "location": "West Europe",
      "properties": {
        "name": "[parameters('sites_dave_api_name')]",
        "hostNames": [
          "dave-api.azurewebsites.net"
        ],
        "enabledHostNames": [
          "dave-api.azurewebsites.net",
          "dave-api.scm.azurewebsites.net"
        ],
        "hostNameSslStates": [
          {
            "name": "[concat(parameters('sites_dave_api_name'),'.azurewebsites.net')]",
            "sslState": 0,
            "thumbprint": null,
            "ipBasedSslState": 0
          },
          {
            "name": "[concat(parameters('sites_dave_api_name'),'.scm.azurewebsites.net')]",
            "sslState": 0,
            "thumbprint": null,
            "ipBasedSslState": 0
          }
        ],
        "serverFarmId": "[resourceId('Microsoft.Web/serverfarms', parameters('serverfarms_dave_sp_name'))]"
      },
      "dependsOn": [
        "[resourceId('Microsoft.Web/serverfarms', parameters('serverfarms_dave_sp_name'))]"
      ]
    },
    {
      "type": "Microsoft.Sql/servers/databases",
      "kind": "v12.0,system",
      "name": "[parameters('databases_master_name')]",
      "apiVersion": "2014-04-01-preview",
      "location": "West Europe",
      "properties": {
        "edition": "System",
        "status": "Online",
        "serviceLevelObjective": "System2",
        "collation": "SQL_Latin1_General_CP1_CI_AS",
        "maxSizeBytes": "5368709120",
        "currentServiceObjectiveId": "620323bf-2879-4807-b30d-c2e6d7b3b3aa",
        "requestedServiceObjectiveId": "620323bf-2879-4807-b30d-c2e6d7b3b3aa",
        "requestedServiceObjectiveName": null,
        "defaultSecondaryLocation": "North Europe",
        "earliestRestoreDate": null,
        "elasticPoolName": null,
        "containmentState": 2
      },
      "dependsOn": [
        "[resourceId('Microsoft.Sql/servers', parameters('servers_dave_db_host_name'))]"
      ]
    },
    {
      "type": "Microsoft.Sql/servers/databases",
      "kind": "v12.0,user",
      "name": "[parameters('databases_dave_db_name')]",
      "apiVersion": "2014-04-01-preview",
      "location": "West Europe",
      "properties": {
        "edition": "Standard",
        "status": "Online",
        "serviceLevelObjective": "S0",
        "collation": "SQL_Latin1_General_CP1_CI_AS",
        "maxSizeBytes": "268435456000",
        "currentServiceObjectiveId": "f1173c43-91bd-4aaa-973c-54e79e15235b",
        "requestedServiceObjectiveId": "f1173c43-91bd-4aaa-973c-54e79e15235b",
        "requestedServiceObjectiveName": null,
        "defaultSecondaryLocation": "North Europe",
        "earliestRestoreDate": "2016-04-12T11:22:36.077Z",
        "elasticPoolName": null,
        "containmentState": 2
      },
      "dependsOn": [
        "[resourceId('Microsoft.Sql/servers', parameters('servers_dave_db_host_name'))]"
      ]
    },
    {
      "type": "Microsoft.Sql/servers/firewallRules",
      "kind": "v12.0",
      "name": "[parameters('firewallRules_AllowAllWindowsAzureIps_name')]",
      "apiVersion": "2014-04-01-preview",
      "location": "West Europe",
      "properties": {
        "startIpAddress": "0.0.0.0",
        "endIpAddress": "0.0.0.0"
      },
      "dependsOn": [
        "[resourceId('Microsoft.Sql/servers', parameters('servers_dave_db_host_name'))]"
      ]
    }
  ]
}